{
  "author": {
    "email": "brian@megabyte.space",
    "name": "Brian Zalewski"
  },
  "autodoc_actions_description": "",
  "autodoc_tags_description": "",
  "autodoc_todo_description": "",
  "autodoc_variables_description": "",
  "badge_style": "for-the-badge",
  "company": "Megabyte LLC",
  "copyright": "2020-2021",
  "docker_label_authors": "Brian Zalewski <brian@megabyte.space>",
  "docs": {
    "header_description_post": "<i></i>",
    "header_description_pre": "<i></i>",
    "header_title_post": "<i></i>",
    "header_title_pre": "<i></i>"
  },
  "email": {
    "help": "help@megabyte.space"
  },
  "github_prefix": "<i></i>",
  "group": "npm",
  "json_top_keys": "",
  "license": "MIT",
  "link": {
    "chat": "https://app.slack.com/client/T01ABCG4NK1/C01NN74H0LW/details/",
    "docs": "https://megabyte.space/docs",
    "home": "https://megabyte.space",
    "installdoctor": "https://install.doctor",
    "privacy": "https://megabyte.space/privacy",
    "shield": "https://shields.io",
    "terms": "https://megabyte.space/terms"
  },
  "misc": {
    "appnest": "https://github.com/andreasbm/readme",
    "husky": "https://www.npmjs.com/package/husky",
    "tinypng": "https://tinypng.com/"
  },
  "name": "[[ package.json .blueprint.name - See CONTRIBUTING.md ]]",
  "organization": "Megabyte Labs",
  "overview": "[[ This is a new repository without the details filled in yet. Look for the section about blueprint data in the CONTRIBUTING.md to set up the project. ]]",
  "profile": {
    "dockerhub": "megabytelabs",
    "galaxy": "professormanhattan",
    "github": "ProfessorManhattan",
    "linkedin": "blzalewski",
    "npmjs": "thisismyfirstday",
    "npmjs_organization": "megabytelabs",
    "opencollective": "megabytelabs",
    "patreon": "ProfessorManhattan",
    "pypi": "ProfessorManhattan",
    "replit": "ProfessorMegaby",
    "stackblitz": "ProfessorManhattan",
    "twitter": "MegabyteLabs",
    "vagrant": "ProfessorManhattan"
  },
  "profile_link": {
    "dockerhub": "https://hub.docker.com/u",
    "galaxy": "https://galaxy.ansible.com",
    "github": "https://github.com",
    "linkedin": "https://www.linkedin.com/in/",
    "npmjs": "https://www.npmjs.com/~",
    "opencollective": "https://opencollective.com",
    "patreon": "https://www.patreon.com",
    "pypi": "https://pypi.org/user",
    "replit": "https://repl.it/@",
    "stackblitz": "https://stackblitz.com/@",
    "twitter": "MegabyteLabs",
    "vagrant": "https://app.vagrantup.com"
  },
  "repository": {
    "github": "",
    "gitlab": "",
    "group": {
      "ansible_roles": "https://gitlab.com/megabyte-labs/ansible-roles",
      "apps": "https://gitlab.com/megabyte-labs/apps",
      "ci": "https://gitlab.com/megabyte-labs/ci",
      "cloud": "https://gitlab.com/megabyte-labs/cloud",
      "common": "https://gitlab.com/megabyte-labs/common",
      "cryptocurrency": "https://gitlab.com/megabyte-labs/cryptocurrency",
      "docker_compose": "https://gitlab.com/megabyte-labs/docker-compose",
      "dockerfile": "https://gitlab.com/megabyte-labs/dockerfile",
      "documentation": "https://gitlab.com/megabyte-labs/documentation",
      "kubernetes": "https://gitlab.com/megabyte-labs/kubernetes",
      "npm": "https://gitlab.com/megabyte-labs/npm",
      "packer": "https://gitlab.com/megabyte-labs/packer",
      "python": "https://gitlab.com/megabyte-labs/python",
      "software": "https://gitlab.com/megabyte-labs/software",
      "web_components": "https://gitlab.com/megabyte-labs/web-components"
    },
    "location": {
      "commits": {
        "github": "/commits/master",
        "gitlab": "/-/commits/master"
      },
      "conduct": {
        "github": "/blob/master/CODE_OF_CONDUCT.md",
        "gitlab": "/-/blob/master/CODE_OF_CONDUCT.md"
      },
      "contributing": {
        "github": "/blob/master/CONTRIBUTING.md",
        "gitlab": "/-/blob/master/CONTRIBUTING.md"
      },
      "demo": {
        "github": "/raw/master/.demo.gif",
        "gitlab": "/-/raw/master/.demo.gif"
      },
      "issues": {
        "github": "/issues",
        "gitlab": "/-/issues"
      },
      "license": {
        "github": "/blob/master/LICENSE",
        "gitlab": "/-/blob/master/LICENSE"
      },
      "logo": {
        "github": "/raw/master/logo.png",
        "gitlab": "/-/raw/master/logo.png"
      },
      "readme": {
        "github": "/blob/master/README.md",
        "gitlab": "/-/blob/master/README.md"
      }
    },
    "namespace": "",
    "project": {
      "assets": "https://gitlab.com/megabyte-labs/assets/-/raw/master",
      "autodoc": "https://github.com/AndresBott/ansible-autodoc",
      "playbooks": "https://gitlab.com/InstallDoc/ansible-playbook-boilerplate",
      "wrangler": "https://gitlab.com/megabyte-labs/wrangler"
    }
  },
  "sharp_instructions": [],
  "sponsorship": {
    "author": "Brian Zalewski",
    "text": "I create open source projects out of love. Although I have a job, shelter, and as much fast food as I can handle, it would still be pretty cool to be appreciated by the community for something I have spent a lot of time and money on. Please consider sponsoring me! Who knows? Maybe I will be able to quit my job and publish open source full time."
  },
  "subgroup": "cli",
  "title": "[[ package.json .blueprint.title - See CONTRIBUTING.md ]]"
}
